Alu.vcd
$date
  Fri Dec  9 15:42:06 2022
$end
$version
  GHDL v0
$end
$timescale
  1 fs
$end
$var reg 32 ! op1[31:0] $end
$var reg 32 " op2[31:0] $end
$var reg 1 # horloge $end
$var reg 1 $ cin $end
$var reg 2 % cmd[1:0] $end
$var reg 32 & res[31:0] $end
$var reg 1 ' cout $end
$var reg 1 ( z $end
$var reg 1 ) n $end
$var reg 1 * v $end
$var reg 1 + vdd $end
$var reg 1 , vss $end
$scope module test $end
$var reg 32 - op1[31:0] $end
$var reg 32 . op2[31:0] $end
$var reg 1 / cin $end
$var reg 2 0 cmd[1:0] $end
$var reg 32 1 res[31:0] $end
$var reg 1 2 cout $end
$var reg 1 3 z $end
$var reg 1 4 n $end
$var reg 1 5 v $end
$var reg 1 6 vdd $end
$var reg 1 7 vss $end
$var reg 32 8 res_signal[31:0] $end
$var reg 32 9 add_sum[31:0] $end
$var reg 1 : add_cout $end
$scope module add32 $end
$var reg 32 ; a[31:0] $end
$var reg 32 < b[31:0] $end
$var reg 1 = cin $end
$var reg 1 > c $end
$var reg 32 ? s[31:0] $end
$var reg 1 @ c_signal $end
$scope module part_0 $end
$var reg 16 A a[15:0] $end
$var reg 16 B b[15:0] $end
$var reg 1 C cin $end
$var reg 1 D c $end
$var reg 16 E s[15:0] $end
$var reg 3 F c_signal[2:0] $end
$scope module hw_0 $end
$var reg 4 G a[3:0] $end
$var reg 4 H b[3:0] $end
$var reg 1 I cin $end
$var reg 1 J c $end
$var reg 4 K s[3:0] $end
$var reg 3 L c_signal[2:0] $end
$scope module bit_0 $end
$var reg 1 M a $end
$var reg 1 N b $end
$var reg 1 O cin $end
$var reg 1 P c $end
$var reg 1 Q s $end
$upscope $end
$scope module bit_1 $end
$var reg 1 R a $end
$var reg 1 S b $end
$var reg 1 T cin $end
$var reg 1 U c $end
$var reg 1 V s $end
$upscope $end
$scope module bit_2 $end
$var reg 1 W a $end
$var reg 1 X b $end
$var reg 1 Y cin $end
$var reg 1 Z c $end
$var reg 1 [ s $end
$upscope $end
$scope module bit_3 $end
$var reg 1 \ a $end
$var reg 1 ] b $end
$var reg 1 ^ cin $end
$var reg 1 _ c $end
$var reg 1 ` s $end
$upscope $end
$upscope $end
$scope module hw_1 $end
$var reg 4 a a[3:0] $end
$var reg 4 b b[3:0] $end
$var reg 1 c cin $end
$var reg 1 d c $end
$var reg 4 e s[3:0] $end
$var reg 3 f c_signal[2:0] $end
$scope module bit_0 $end
$var reg 1 g a $end
$var reg 1 h b $end
$var reg 1 i cin $end
$var reg 1 j c $end
$var reg 1 k s $end
$upscope $end
$scope module bit_1 $end
$var reg 1 l a $end
$var reg 1 m b $end
$var reg 1 n cin $end
$var reg 1 o c $end
$var reg 1 p s $end
$upscope $end
$scope module bit_2 $end
$var reg 1 q a $end
$var reg 1 r b $end
$var reg 1 s cin $end
$var reg 1 t c $end
$var reg 1 u s $end
$upscope $end
$scope module bit_3 $end
$var reg 1 v a $end
$var reg 1 w b $end
$var reg 1 x cin $end
$var reg 1 y c $end
$var reg 1 z s $end
$upscope $end
$upscope $end
$scope module hw_2 $end
$var reg 4 { a[3:0] $end
$var reg 4 | b[3:0] $end
$var reg 1 } cin $end
$var reg 1 !" c $end
$var reg 4 "" s[3:0] $end
$var reg 3 #" c_signal[2:0] $end
$scope module bit_0 $end
$var reg 1 $" a $end
$var reg 1 %" b $end
$var reg 1 &" cin $end
$var reg 1 '" c $end
$var reg 1 (" s $end
$upscope $end
$scope module bit_1 $end
$var reg 1 )" a $end
$var reg 1 *" b $end
$var reg 1 +" cin $end
$var reg 1 ," c $end
$var reg 1 -" s $end
$upscope $end
$scope module bit_2 $end
$var reg 1 ." a $end
$var reg 1 /" b $end
$var reg 1 0" cin $end
$var reg 1 1" c $end
$var reg 1 2" s $end
$upscope $end
$scope module bit_3 $end
$var reg 1 3" a $end
$var reg 1 4" b $end
$var reg 1 5" cin $end
$var reg 1 6" c $end
$var reg 1 7" s $end
$upscope $end
$upscope $end
$scope module hw_3 $end
$var reg 4 8" a[3:0] $end
$var reg 4 9" b[3:0] $end
$var reg 1 :" cin $end
$var reg 1 ;" c $end
$var reg 4 <" s[3:0] $end
$var reg 3 =" c_signal[2:0] $end
$scope module bit_0 $end
$var reg 1 >" a $end
$var reg 1 ?" b $end
$var reg 1 @" cin $end
$var reg 1 A" c $end
$var reg 1 B" s $end
$upscope $end
$scope module bit_1 $end
$var reg 1 C" a $end
$var reg 1 D" b $end
$var reg 1 E" cin $end
$var reg 1 F" c $end
$var reg 1 G" s $end
$upscope $end
$scope module bit_2 $end
$var reg 1 H" a $end
$var reg 1 I" b $end
$var reg 1 J" cin $end
$var reg 1 K" c $end
$var reg 1 L" s $end
$upscope $end
$scope module bit_3 $end
$var reg 1 M" a $end
$var reg 1 N" b $end
$var reg 1 O" cin $end
$var reg 1 P" c $end
$var reg 1 Q" s $end
$upscope $end
$upscope $end
$upscope $end
$scope module part_1 $end
$var reg 16 R" a[15:0] $end
$var reg 16 S" b[15:0] $end
$var reg 1 T" cin $end
$var reg 1 U" c $end
$var reg 16 V" s[15:0] $end
$var reg 3 W" c_signal[2:0] $end
$scope module hw_0 $end
$var reg 4 X" a[3:0] $end
$var reg 4 Y" b[3:0] $end
$var reg 1 Z" cin $end
$var reg 1 [" c $end
$var reg 4 \" s[3:0] $end
$var reg 3 ]" c_signal[2:0] $end
$scope module bit_0 $end
$var reg 1 ^" a $end
$var reg 1 _" b $end
$var reg 1 `" cin $end
$var reg 1 a" c $end
$var reg 1 b" s $end
$upscope $end
$scope module bit_1 $end
$var reg 1 c" a $end
$var reg 1 d" b $end
$var reg 1 e" cin $end
$var reg 1 f" c $end
$var reg 1 g" s $end
$upscope $end
$scope module bit_2 $end
$var reg 1 h" a $end
$var reg 1 i" b $end
$var reg 1 j" cin $end
$var reg 1 k" c $end
$var reg 1 l" s $end
$upscope $end
$scope module bit_3 $end
$var reg 1 m" a $end
$var reg 1 n" b $end
$var reg 1 o" cin $end
$var reg 1 p" c $end
$var reg 1 q" s $end
$upscope $end
$upscope $end
$scope module hw_1 $end
$var reg 4 r" a[3:0] $end
$var reg 4 s" b[3:0] $end
$var reg 1 t" cin $end
$var reg 1 u" c $end
$var reg 4 v" s[3:0] $end
$var reg 3 w" c_signal[2:0] $end
$scope module bit_0 $end
$var reg 1 x" a $end
$var reg 1 y" b $end
$var reg 1 z" cin $end
$var reg 1 {" c $end
$var reg 1 |" s $end
$upscope $end
$scope module bit_1 $end
$var reg 1 }" a $end
$var reg 1 !# b $end
$var reg 1 "# cin $end
$var reg 1 ## c $end
$var reg 1 $# s $end
$upscope $end
$scope module bit_2 $end
$var reg 1 %# a $end
$var reg 1 &# b $end
$var reg 1 '# cin $end
$var reg 1 (# c $end
$var reg 1 )# s $end
$upscope $end
$scope module bit_3 $end
$var reg 1 *# a $end
$var reg 1 +# b $end
$var reg 1 ,# cin $end
$var reg 1 -# c $end
$var reg 1 .# s $end
$upscope $end
$upscope $end
$scope module hw_2 $end
$var reg 4 /# a[3:0] $end
$var reg 4 0# b[3:0] $end
$var reg 1 1# cin $end
$var reg 1 2# c $end
$var reg 4 3# s[3:0] $end
$var reg 3 4# c_signal[2:0] $end
$scope module bit_0 $end
$var reg 1 5# a $end
$var reg 1 6# b $end
$var reg 1 7# cin $end
$var reg 1 8# c $end
$var reg 1 9# s $end
$upscope $end
$scope module bit_1 $end
$var reg 1 :# a $end
$var reg 1 ;# b $end
$var reg 1 <# cin $end
$var reg 1 =# c $end
$var reg 1 ># s $end
$upscope $end
$scope module bit_2 $end
$var reg 1 ?# a $end
$var reg 1 @# b $end
$var reg 1 A# cin $end
$var reg 1 B# c $end
$var reg 1 C# s $end
$upscope $end
$scope module bit_3 $end
$var reg 1 D# a $end
$var reg 1 E# b $end
$var reg 1 F# cin $end
$var reg 1 G# c $end
$var reg 1 H# s $end
$upscope $end
$upscope $end
$scope module hw_3 $end
$var reg 4 I# a[3:0] $end
$var reg 4 J# b[3:0] $end
$var reg 1 K# cin $end
$var reg 1 L# c $end
$var reg 4 M# s[3:0] $end
$var reg 3 N# c_signal[2:0] $end
$scope module bit_0 $end
$var reg 1 O# a $end
$var reg 1 P# b $end
$var reg 1 Q# cin $end
$var reg 1 R# c $end
$var reg 1 S# s $end
$upscope $end
$scope module bit_1 $end
$var reg 1 T# a $end
$var reg 1 U# b $end
$var reg 1 V# cin $end
$var reg 1 W# c $end
$var reg 1 X# s $end
$upscope $end
$scope module bit_2 $end
$var reg 1 Y# a $end
$var reg 1 Z# b $end
$var reg 1 [# cin $end
$var reg 1 \# c $end
$var reg 1 ]# s $end
$upscope $end
$scope module bit_3 $end
$var reg 1 ^# a $end
$var reg 1 _# b $end
$var reg 1 `# cin $end
$var reg 1 a# c $end
$var reg 1 b# s $end
$upscope $end
$upscope $end
$upscope $end
$upscope $end
$upscope $end
$enddefinitions $end
#0
b00000000000000000000000000000000 !
b00000000000000000000000000000000 "
0#
0$
bUU %
b00000000000000000000000000000000 &
0'
1(
0)
0*
1+
0,
b00000000000000000000000000000000 -
b00000000000000000000000000000000 .
0/
bUU 0
b00000000000000000000000000000000 1
02
13
04
05
16
07
b00000000000000000000000000000000 8
b00000000000000000000000000000000 9
0:
b00000000000000000000000000000000 ;
b00000000000000000000000000000000 <
0=
0>
b00000000000000000000000000000000 ?
0@
b0000000000000000 A
b0000000000000000 B
0C
0D
b0000000000000000 E
b000 F
b0000 G
b0000 H
0I
0J
b0000 K
b000 L
0M
0N
0O
0P
0Q
0R
0S
0T
0U
0V
0W
0X
0Y
0Z
0[
0\
0]
0^
0_
0`
b0000 a
b0000 b
0c
0d
b0000 e
b000 f
0g
0h
0i
0j
0k
0l
0m
0n
0o
0p
0q
0r
0s
0t
0u
0v
0w
0x
0y
0z
b0000 {
b0000 |
0}
0!"
b0000 ""
b000 #"
0$"
0%"
0&"
0'"
0("
0)"
0*"
0+"
0,"
0-"
0."
0/"
00"
01"
02"
03"
04"
05"
06"
07"
b0000 8"
b0000 9"
0:"
0;"
b0000 <"
b000 ="
0>"
0?"
0@"
0A"
0B"
0C"
0D"
0E"
0F"
0G"
0H"
0I"
0J"
0K"
0L"
0M"
0N"
0O"
0P"
0Q"
b0000000000000000 R"
b0000000000000000 S"
0T"
0U"
b0000000000000000 V"
b000 W"
b0000 X"
b0000 Y"
0Z"
0["
b0000 \"
b000 ]"
0^"
0_"
0`"
0a"
0b"
0c"
0d"
0e"
0f"
0g"
0h"
0i"
0j"
0k"
0l"
0m"
0n"
0o"
0p"
0q"
b0000 r"
b0000 s"
0t"
0u"
b0000 v"
b000 w"
0x"
0y"
0z"
0{"
0|"
0}"
0!#
0"#
0##
0$#
0%#
0&#
0'#
0(#
0)#
0*#
0+#
0,#
0-#
0.#
b0000 /#
b0000 0#
01#
02#
b0000 3#
b000 4#
05#
06#
07#
08#
09#
0:#
0;#
0<#
0=#
0>#
0?#
0@#
0A#
0B#
0C#
0D#
0E#
0F#
0G#
0H#
b0000 I#
b0000 J#
0K#
0L#
b0000 M#
b000 N#
0O#
0P#
0Q#
0R#
0S#
0T#
0U#
0V#
0W#
0X#
0Y#
0Z#
0[#
0\#
0]#
0^#
0_#
0`#
0a#
0b#
#15000000
b10000001000000100000001100000001 !
b10000000000000000000000000000001 "
b00000001000000100000001100000000 &
0(
b10000001000000100000001100000001 -
b10000000000000000000000000000001 .
b00000001000000100000001100000000 1
03
b00000001000000100000001100000000 8
b00000001000000100000001100000010 9
1:
b10000001000000100000001100000001 ;
b10000000000000000000000000000001 <
1>
b00000001000000100000001100000010 ?
b0000001100000001 A
b0000000000000001 B
b0000001100000010 E
b0001 G
b0001 H
b0010 K
b001 L
1M
1N
1P
1T
1V
b0011 {
b0011 ""
1$"
1("
1)"
1-"
b1000000100000010 R"
b1000000000000000 S"
1U"
b0000000100000010 V"
b0010 X"
b0010 \"
1c"
1g"
b0001 /#
b0001 3#
15#
19#
b1000 I#
b1000 J#
1L#
1^#
1_#
1a#
#20000000
b00 %
b00000001000000100000001100000010 &
1'
1*
b00 0
b00000001000000100000001100000010 1
12
15
#30000000
b01011100010111000101110001011100 !
b01011100010111000101110001011100 "
b01 %
b01011100010111000101110001011100 &
0'
0*
b01011100010111000101110001011100 -
b01011100010111000101110001011100 .
b01 0
b01011100010111000101110001011100 1
02
05
b01011100010111000101110001011100 8
b10111000101110001011100010111000 9
0:
b01011100010111000101110001011100 ;
b01011100010111000101110001011100 <
0>
b10111000101110001011100010111000 ?
b0101110001011100 A
b0101110001011100 B
b1011100010111000 E
b101 F
b1100 G
b1100 H
1J
b1000 K
b100 L
0M
0N
0P
0T
0V
1W
1X
1Z
1\
1]
1^
1_
1`
b0101 a
b0101 b
1c
b1011 e
b101 f
1g
1h
1i
1j
1k
1n
1p
1q
1r
1t
1x
1z
b1100 {
b1100 |
1!"
b1000 ""
b100 #"
0$"
0("
0)"
0-"
1."
1/"
11"
13"
14"
15"
16"
17"
b0101 8"
b0101 9"
1:"
b1011 <"
b101 ="
1>"
1?"
1@"
1A"
1B"
1E"
1G"
1H"
1I"
1K"
1O"
1Q"
b0101110001011100 R"
b0101110001011100 S"
0U"
b1011100010111000 V"
b101 W"
b1100 X"
b1100 Y"
1["
b1000 \"
b100 ]"
0c"
0g"
1h"
1i"
1k"
1m"
1n"
1o"
1p"
1q"
b0101 r"
b0101 s"
1t"
b1011 v"
b101 w"
1x"
1y"
1z"
1{"
1|"
1"#
1$#
1%#
1&#
1(#
1,#
1.#
b1100 /#
b1100 0#
12#
b1000 3#
b100 4#
05#
09#
1?#
1@#
1B#
1D#
1E#
1F#
1G#
1H#
b0101 I#
b0101 J#
1K#
0L#
b1011 M#
b101 N#
1O#
1P#
1Q#
1R#
1S#
1V#
1X#
1Y#
1Z#
1\#
0^#
0_#
1`#
0a#
1b#
#35000000
b11000101110001011100010111000101 "
b01000100010001000100010001000100 &
b11000101110001011100010111000101 .
b01000100010001000100010001000100 1
b01000100010001000100010001000100 8
b00100010001000100010001000100001 9
1:
b11000101110001011100010111000101 <
1>
b00100010001000100010001000100001 ?
1@
b1100010111000101 B
1D
b0010001000100001 E
b111 F
b0101 H
b0001 K
1N
1Q
0]
0`
b1100 b
1d
b0010 e
0h
0k
1w
1y
0z
b0101 |
1}
b0010 ""
b101 #"
1%"
1&"
1'"
0("
1+"
1-"
04"
07"
b1100 9"
1;"
b0010 <"
0?"
0B"
1N"
1P"
0Q"
b1100010111000101 S"
1T"
1U"
b0010001000100010 V"
b111 W"
b0101 Y"
1Z"
b0010 \"
b101 ]"
1_"
1`"
1a"
0b"
1e"
1g"
0n"
0q"
b1100 s"
1u"
b0010 v"
0y"
0|"
1+#
1-#
0.#
b0101 0#
11#
b0010 3#
b101 4#
16#
17#
18#
09#
1<#
1>#
0E#
0H#
b1100 J#
1L#
b0010 M#
0P#
0S#
1_#
1a#
0b#
#40000000
b10 %
b11011101110111011101110111011101 &
b10 0
b11011101110111011101110111011101 1
b11011101110111011101110111011101 8
#45000000
b01011100010111000101110001011100 "
b01011100010111000101110001011100 &
b01011100010111000101110001011100 .
b01011100010111000101110001011100 1
b01011100010111000101110001011100 8
b10111000101110001011100010111000 9
0:
b01011100010111000101110001011100 <
0>
b10111000101110001011100010111000 ?
0@
b0101110001011100 B
0D
b1011100010111000 E
b101 F
b1100 H
b1000 K
0N
0Q
1]
1`
b0101 b
0d
b1011 e
1h
1k
0w
0y
1z
b1100 |
0}
b1000 ""
b100 #"
0%"
0&"
0'"
0("
0+"
0-"
14"
17"
b0101 9"
0;"
b1011 <"
1?"
1B"
0N"
0P"
1Q"
b0101110001011100 S"
0T"
0U"
b1011100010111000 V"
b101 W"
b1100 Y"
0Z"
b1000 \"
b100 ]"
0_"
0`"
0a"
0b"
0e"
0g"
1n"
1q"
b0101 s"
0u"
b1011 v"
1y"
1|"
0+#
0-#
1.#
b1100 0#
01#
b1000 3#
b100 4#
06#
07#
08#
09#
0<#
0>#
1E#
1H#
b0101 J#
0L#
b1011 M#
1P#
1S#
0_#
0a#
1b#
#50000000
b11 %
b00000000000000000000000000000000 &
1(
b11 0
b00000000000000000000000000000000 1
13
b00000000000000000000000000000000 8
#55000000
b11111111111111111111111111111111 "
b10100011101000111010001110100011 &
0(
b11111111111111111111111111111111 .
b10100011101000111010001110100011 1
03
b10100011101000111010001110100011 8
b01011100010111000101110001011011 9
1:
b11111111111111111111111111111111 <
1>
b01011100010111000101110001011011 ?
1@
b1111111111111111 B
1D
b0101110001011011 E
b111 F
b1111 H
b1011 K
1N
1Q
1S
1V
b1111 b
1d
b0101 e
b111 f
1m
1o
0p
1s
1u
1w
1y
0z
b1111 |
1}
b1100 ""
b111 #"
1%"
1&"
1'"
0("
1*"
1+"
1,"
0-"
10"
12"
b1111 9"
1;"
b0101 <"
b111 ="
1D"
1F"
0G"
1J"
1L"
1N"
1P"
0Q"
b1111111111111111 S"
1T"
1U"
b0101110001011100 V"
b111 W"
b1111 Y"
1Z"
b1100 \"
b111 ]"
1_"
1`"
1a"
0b"
1d"
1e"
1f"
0g"
1j"
1l"
b1111 s"
1u"
b0101 v"
b111 w"
1!#
1##
0$#
1'#
1)#
1+#
1-#
0.#
b1111 0#
11#
b1100 3#
b111 4#
16#
17#
18#
09#
1;#
1<#
1=#
0>#
1A#
1C#
b1111 J#
1L#
b0101 M#
b111 N#
1U#
1W#
0X#
1[#
1]#
1_#
1a#
0b#
#60000000
b10000001000000100000001100000001 !
b10000000000000000000000000000001 "
1$
b00 %
b00000001000000100000001100000011 &
1'
0)
1*
b10000001000000100000001100000001 -
b10000000000000000000000000000001 .
1/
b00 0
b00000001000000100000001100000011 1
12
04
15
b00000001000000100000001100000000 8
b00000001000000100000001100000011 9
b10000001000000100000001100000001 ;
b10000000000000000000000000000001 <
1=
b00000001000000100000001100000011 ?
0@
b0000001100000001 A
b0000000000000001 B
1C
0D
b0000001100000011 E
b000 F
b0001 G
b0001 H
1I
0J
b0011 K
b001 L
1M
1O
1P
0S
1T
1V
0W
0X
0Z
0\
0]
0^
0_
0`
b0000 a
b0000 b
0c
0d
b0000 e
b000 f
0g
0h
0i
0j
0k
0m
0n
0o
0p
0q
0r
0s
0t
0u
0w
0x
0y
0z
b0011 {
b0000 |
0}
0!"
b0011 ""
b000 #"
1$"
0%"
0&"
0'"
1("
1)"
0*"
0+"
0,"
1-"
0."
0/"
00"
01"
02"
03"
04"
05"
06"
07"
b0000 8"
b0000 9"
0:"
0;"
b0000 <"
b000 ="
0>"
0?"
0@"
0A"
0B"
0D"
0E"
0F"
0G"
0H"
0I"
0J"
0K"
0L"
0N"
0O"
0P"
0Q"
b1000000100000010 R"
b1000000000000000 S"
0T"
b0000000100000010 V"
b000 W"
b0010 X"
b0000 Y"
0Z"
0["
b0010 \"
b000 ]"
0_"
0`"
0a"
0b"
1c"
0d"
0e"
0f"
1g"
0h"
0i"
0j"
0k"
0l"
0m"
0n"
0o"
0p"
0q"
b0000 r"
b0000 s"
0t"
0u"
b0000 v"
b000 w"
0x"
0y"
0z"
0{"
0|"
0!#
0"#
0##
0$#
0%#
0&#
0'#
0(#
0)#
0+#
0,#
0-#
0.#
b0001 /#
b0000 0#
01#
02#
b0001 3#
b000 4#
15#
06#
07#
08#
19#
0;#
0<#
0=#
0>#
0?#
0@#
0A#
0B#
0C#
0D#
0E#
0F#
0G#
0H#
b1000 I#
b1000 J#
0K#
b0000 M#
b000 N#
0O#
0P#
0Q#
0R#
0S#
0U#
0V#
0W#
0X#
0Y#
0Z#
0[#
0\#
0]#
1^#
0`#
0b#
#70000000
b01011100010111000101110001011100 !
b01011100010111000101110001011100 "
b01 %
b01011100010111000101110001011100 &
0'
0*
b01011100010111000101110001011100 -
b01011100010111000101110001011100 .
b01 0
b01011100010111000101110001011100 1
02
05
b01011100010111000101110001011100 8
b10111000101110001011100010111001 9
0:
b01011100010111000101110001011100 ;
b01011100010111000101110001011100 <
0>
b10111000101110001011100010111001 ?
b0101110001011100 A
b0101110001011100 B
b1011100010111001 E
b101 F
b1100 G
b1100 H
1J
b1001 K
b100 L
0M
0N
0P
0T
0V
1W
1X
1Z
1\
1]
1^
1_
1`
b0101 a
b0101 b
1c
b1011 e
b101 f
1g
1h
1i
1j
1k
1n
1p
1q
1r
1t
1x
1z
b1100 {
b1100 |
1!"
b1000 ""
b100 #"
0$"
0("
0)"
0-"
1."
1/"
11"
13"
14"
15"
16"
17"
b0101 8"
b0101 9"
1:"
b1011 <"
b101 ="
1>"
1?"
1@"
1A"
1B"
1E"
1G"
1H"
1I"
1K"
1O"
1Q"
b0101110001011100 R"
b0101110001011100 S"
0U"
b1011100010111000 V"
b101 W"
b1100 X"
b1100 Y"
1["
b1000 \"
b100 ]"
0c"
0g"
1h"
1i"
1k"
1m"
1n"
1o"
1p"
1q"
b0101 r"
b0101 s"
1t"
b1011 v"
b101 w"
1x"
1y"
1z"
1{"
1|"
1"#
1$#
1%#
1&#
1(#
1,#
1.#
b1100 /#
b1100 0#
12#
b1000 3#
b100 4#
05#
09#
1?#
1@#
1B#
1D#
1E#
1F#
1G#
1H#
b0101 I#
b0101 J#
1K#
0L#
b1011 M#
b101 N#
1O#
1P#
1Q#
1R#
1S#
1V#
1X#
1Y#
1Z#
1\#
0^#
0_#
1`#
0a#
1b#
#75000000
b11000101110001011100010111000101 "
b01000100010001000100010001000100 &
b11000101110001011100010111000101 .
b01000100010001000100010001000100 1
b01000100010001000100010001000100 8
b00100010001000100010001000100010 9
1:
b11000101110001011100010111000101 <
1>
b00100010001000100010001000100010 ?
1@
b1100010111000101 B
1D
b0010001000100010 E
b111 F
b0101 H
b0010 K
b101 L
1N
1P
0Q
1T
1V
0]
0`
b1100 b
1d
b0010 e
0h
0k
1w
1y
0z
b0101 |
1}
b0010 ""
b101 #"
1%"
1&"
1'"
0("
1+"
1-"
04"
07"
b1100 9"
1;"
b0010 <"
0?"
0B"
1N"
1P"
0Q"
b1100010111000101 S"
1T"
1U"
b0010001000100010 V"
b111 W"
b0101 Y"
1Z"
b0010 \"
b101 ]"
1_"
1`"
1a"
0b"
1e"
1g"
0n"
0q"
b1100 s"
1u"
b0010 v"
0y"
0|"
1+#
1-#
0.#
b0101 0#
11#
b0010 3#
b101 4#
16#
17#
18#
09#
1<#
1>#
0E#
0H#
b1100 J#
1L#
b0010 M#
0P#
0S#
1_#
1a#
0b#
#80000000
b10 %
b11011101110111011101110111011101 &
b10 0
b11011101110111011101110111011101 1
b11011101110111011101110111011101 8
#85000000
b01011100010111000101110001011100 "
b01011100010111000101110001011100 &
b01011100010111000101110001011100 .
b01011100010111000101110001011100 1
b01011100010111000101110001011100 8
b10111000101110001011100010111001 9
0:
b01011100010111000101110001011100 <
0>
b10111000101110001011100010111001 ?
0@
b0101110001011100 B
0D
b1011100010111001 E
b101 F
b1100 H
b1001 K
b100 L
0N
0P
1Q
0T
0V
1]
1`
b0101 b
0d
b1011 e
1h
1k
0w
0y
1z
b1100 |
0}
b1000 ""
b100 #"
0%"
0&"
0'"
0("
0+"
0-"
14"
17"
b0101 9"
0;"
b1011 <"
1?"
1B"
0N"
0P"
1Q"
b0101110001011100 S"
0T"
0U"
b1011100010111000 V"
b101 W"
b1100 Y"
0Z"
b1000 \"
b100 ]"
0_"
0`"
0a"
0b"
0e"
0g"
1n"
1q"
b0101 s"
0u"
b1011 v"
1y"
1|"
0+#
0-#
1.#
b1100 0#
01#
b1000 3#
b100 4#
06#
07#
08#
09#
0<#
0>#
1E#
1H#
b0101 J#
0L#
b1011 M#
1P#
1S#
0_#
0a#
1b#
#90000000
b11 %
b00000000000000000000000000000000 &
1(
b11 0
b00000000000000000000000000000000 1
13
b00000000000000000000000000000000 8
#95000000
b11111111111111111111111111111111 "
b10100011101000111010001110100011 &
0(
b11111111111111111111111111111111 .
b10100011101000111010001110100011 1
03
b10100011101000111010001110100011 8
b01011100010111000101110001011100 9
1:
b11111111111111111111111111111111 <
1>
b01011100010111000101110001011100 ?
1@
b1111111111111111 B
1D
b0101110001011100 E
b111 F
b1111 H
b1100 K
b111 L
1N
1P
0Q
1S
1T
1U
0V
1Y
1[
b1111 b
1d
b0101 e
b111 f
1m
1o
0p
1s
1u
1w
1y
0z
b1111 |
1}
b1100 ""
b111 #"
1%"
1&"
1'"
0("
1*"
1+"
1,"
0-"
10"
12"
b1111 9"
1;"
b0101 <"
b111 ="
1D"
1F"
0G"
1J"
1L"
1N"
1P"
0Q"
b1111111111111111 S"
1T"
1U"
b0101110001011100 V"
b111 W"
b1111 Y"
1Z"
b1100 \"
b111 ]"
1_"
1`"
1a"
0b"
1d"
1e"
1f"
0g"
1j"
1l"
b1111 s"
1u"
b0101 v"
b111 w"
1!#
1##
0$#
1'#
1)#
1+#
1-#
0.#
b1111 0#
11#
b1100 3#
b111 4#
16#
17#
18#
09#
1;#
1<#
1=#
0>#
1A#
1C#
b1111 J#
1L#
b0101 M#
b111 N#
1U#
1W#
0X#
1[#
1]#
1_#
1a#
0b#
#100000000
b00 %
b01011100010111000101110001011100 &
1'
b00 0
b01011100010111000101110001011100 1
12
